Log Fold Shrinkage and DEA visualizations – Bulk RNAseq data analysis
…
lookup(gene_name = "TSPAN7", tx2gene = tx2gene, dds = dds)

# A tibble: 1 × 2
  gene_symbol gene_ID        
  <chr>       <chr>          
1 TSPAN7      ENSG00000156298

On the other hand, we can add the information from our tx2gene table, since it has the gene name!

Code

tx2gene

# A tibble: 252,798 × 3
   transcript_ID   gene_ID         gene_symbol
   <chr>           <chr>           <chr>      
 1 ENST00000673477 ENSG00000111186 WNT5B      
 2 ENST00000472194 ENSG00000111186 WNT5B      
 3 ENST00000378736 ENSG00000111186 WNT5B      
 4 ENST00000485748 ENSG00000111186 WNT5B      
 5 ENST00000474481 ENSG00000111186 WNT5B      
 6 ENST00000308647 ENSG00000111186 WNT5B      
 7 ENST00000539198 ENSG00000111186 WNT5B      
 8 ENST00000545811 ENSG00000111186 WNT5B      
 9 ENST00000537031 ENSG00000111186 WNT5B      
10 ENST00000538854 ENSG00000111186 WNT5B      
# ℹ 252,788 more rows
…
