Genomic annotations for functional analyses – Bulk RNAseq data analysis
…
 # Merge the two dataframes together
 annotations <- inner_join(txdb, genedb)

Annotables package

The annotables package is a super easy annotation package to use. It is not updated frequently, so it’s not great for getting the most up-to-date information for the current builds and does not have information for other organisms than human and mouse, but is a quick way to get annotation information, specially for older builds.

Code

library(annotables)
grch38

# A tibble: 75,118 × 9
   ensgene         entrez symbol  chr    start    end strand biotype description
   <chr>            <int> <chr>   <chr>  <int>  <int>  <int> <chr>   <chr>      
 1 ENSG00000000003   7105 TSPAN6  X     1.01e8 1.01e8     -1 protei… tetraspani…
 2 ENSG00000000005  64102 TNMD    X     1.01e8 1.01e8      1 protei… tenomodulin
 3 ENSG00000000419   8813 DPM1    20    5.09e7 5.10e7     -1 protei… dolichyl-p…
 4 ENSG00000000457  57147 SCYL3   1     1.70e8 1.70e8     -1 protei… SCY1 like …
 5 ENSG00000000460  55732 C1orf1… 1     1.70e8 1.70e8      1 protei… chromosome…
 6 ENSG00000000938   2268 FGR     1     2.76e7 2.76e7     -1 protei… FGR proto-…
 7 ENSG00000000971   3075 CFH     1     1.97e8 1.97e8      1 protei… complement…
 8 ENSG00000001036   2519 FUCA2   6     1.43e8 1.44e8     -1 protei… alpha-L-fu…
 9 ENSG00000001084   2729 GCLC    6     5.35e7 5.36e7     -1 protei… glutamate-…
10 ENSG00000001167   4800 NFYA    6     4.11e7 4.11e7      1 protei… nuclear tr…
# ℹ 75,108 more rows
…
